[gd_scene load_steps=3 format=2]

[ext_resource path="res://icon.png" type="Texture" id=1]

[sub_resource type="RectangleShape2D" id=1]
extents = Vector2( 7.9, 7.9 )

[node name="BasicBreakable" type="StaticBody2D" groups=[
"breakable",
]]
__meta__ = {
"_edit_group_": true
}

[node name="Sprite" type="Sprite" parent="."]
modulate = Color( 1, 0, 0, 1 )
scale = Vector2( 0.25, 0.25 )
texture = ExtResource( 1 )
centered = false

[node name="CollisionShape2D" type="CollisionShape2D" parent="."]
position = Vector2( 8, 8 )
shape = SubResource( 1 )
