[gd_scene load_steps=7 format=2]

[ext_resource path="res://Scenes/Characters/Player/Player.tscn" type="PackedScene" id=1]
[ext_resource path="res://Scenes/World/Tiles/la overworld tileset.png" type="Texture" id=2]

[sub_resource type="TileSet" id=1]
0/name = "la overworld tileset.png 0"
0/texture = ExtResource( 2 )
0/tex_offset = Vector2( 0, 0 )
0/modulate = Color( 1, 1, 1, 1 )
0/region = Rect2( 69, 154, 16, 16 )
0/tile_mode = 0
0/occluder_offset = Vector2( 0, 0 )
0/navigation_offset = Vector2( 0, 0 )
0/shape_offset = Vector2( 0, 0 )
0/shape_transform = Transform2D( 1, 0, 0, 1, 0, 0 )
0/shape_one_way = false
0/shape_one_way_margin = 0.0
0/shapes = [  ]
0/z_index = 0
1/name = "la overworld tileset.png 1"
1/texture = ExtResource( 2 )
1/tex_offset = Vector2( 0, 0 )
1/modulate = Color( 1, 1, 1, 1 )
1/region = Rect2( 18, 154, 16, 16 )
1/tile_mode = 0
1/occluder_offset = Vector2( 0, 0 )
1/navigation_offset = Vector2( 0, 0 )
1/shape_offset = Vector2( 0, 0 )
1/shape_transform = Transform2D( 1, 0, 0, 1, 0, 0 )
1/shape_one_way = false
1/shape_one_way_margin = 0.0
1/shapes = [  ]
1/z_index = 0
2/name = "la overworld tileset.png 2"
2/texture = ExtResource( 2 )
2/tex_offset = Vector2( 0, 0 )
2/modulate = Color( 1, 1, 1, 1 )
2/region = Rect2( 375, 120, 16, 16 )
2/tile_mode = 0
2/occluder_offset = Vector2( 0, 0 )
2/navigation_offset = Vector2( 0, 0 )
2/shape_offset = Vector2( 0, 0 )
2/shape_transform = Transform2D( 1, 0, 0, 1, 0, 0 )
2/shape_one_way = false
2/shape_one_way_margin = 0.0
2/shapes = [  ]
2/z_index = 0

[sub_resource type="ConvexPolygonShape2D" id=3]
points = PoolVector2Array( 0, 0, 16, 0, 16, 16, 0, 16 )

[sub_resource type="ConvexPolygonShape2D" id=4]
points = PoolVector2Array( 0, 0, 16, 0, 16, 16, 0, 16 )

[sub_resource type="TileSet" id=2]
0/name = "la overworld tileset.png 0"
0/texture = ExtResource( 2 )
0/tex_offset = Vector2( 0, 0 )
0/modulate = Color( 1, 1, 1, 1 )
0/region = Rect2( 1, 86, 50, 50 )
0/tile_mode = 1
0/autotile/bitmask_mode = 0
0/autotile/bitmask_flags = [ Vector2( 0, 0 ), 256, Vector2( 0, 1 ), 260, Vector2( 0, 2 ), 4, Vector2( 1, 0 ), 320, Vector2( 1, 1 ), 325, Vector2( 1, 2 ), 5, Vector2( 2, 0 ), 64, Vector2( 2, 1 ), 65, Vector2( 2, 2 ), 1 ]
0/autotile/icon_coordinate = Vector2( 1, 1 )
0/autotile/tile_size = Vector2( 16, 16 )
0/autotile/spacing = 1
0/autotile/occluder_map = [  ]
0/autotile/navpoly_map = [  ]
0/autotile/priority_map = [  ]
0/autotile/z_index_map = [  ]
0/occluder_offset = Vector2( 0, 0 )
0/navigation_offset = Vector2( 0, 0 )
0/shape_offset = Vector2( 0, 0 )
0/shape_transform = Transform2D( 1, 0, 0, 1, 0, 0 )
0/shape_one_way = false
0/shape_one_way_margin = 0.0
0/shapes = [  ]
0/z_index = 0
1/name = "la overworld tileset.png 1"
1/texture = ExtResource( 2 )
1/tex_offset = Vector2( 0, 0 )
1/modulate = Color( 1, 1, 1, 1 )
1/region = Rect2( 52, 86, 50, 50 )
1/tile_mode = 1
1/autotile/bitmask_mode = 0
1/autotile/bitmask_flags = [ Vector2( 0, 0 ), 256, Vector2( 0, 1 ), 260, Vector2( 0, 2 ), 4, Vector2( 1, 0 ), 320, Vector2( 1, 1 ), 325, Vector2( 1, 2 ), 5, Vector2( 2, 0 ), 64, Vector2( 2, 1 ), 65, Vector2( 2, 2 ), 1 ]
1/autotile/icon_coordinate = Vector2( 1, 1 )
1/autotile/tile_size = Vector2( 16, 16 )
1/autotile/spacing = 1
1/autotile/occluder_map = [  ]
1/autotile/navpoly_map = [  ]
1/autotile/priority_map = [  ]
1/autotile/z_index_map = [  ]
1/occluder_offset = Vector2( 0, 0 )
1/navigation_offset = Vector2( 0, 0 )
1/shape_offset = Vector2( 0, 0 )
1/shape_transform = Transform2D( 1, 0, 0, 1, 0, 0 )
1/shape_one_way = false
1/shape_one_way_margin = 0.0
1/shapes = [  ]
1/z_index = 0
2/name = "la overworld tileset.png 2"
2/texture = ExtResource( 2 )
2/tex_offset = Vector2( 0, 0 )
2/modulate = Color( 1, 1, 1, 1 )
2/region = Rect2( 307, 205, 50, 50 )
2/tile_mode = 1
2/autotile/bitmask_mode = 0
2/autotile/bitmask_flags = [ Vector2( 0, 0 ), 256, Vector2( 0, 1 ), 260, Vector2( 0, 2 ), 4, Vector2( 1, 0 ), 320, Vector2( 1, 1 ), 325, Vector2( 1, 2 ), 5, Vector2( 2, 0 ), 64, Vector2( 2, 1 ), 65, Vector2( 2, 2 ), 1 ]
2/autotile/icon_coordinate = Vector2( 1, 1 )
2/autotile/tile_size = Vector2( 16, 16 )
2/autotile/spacing = 1
2/autotile/occluder_map = [  ]
2/autotile/navpoly_map = [  ]
2/autotile/priority_map = [  ]
2/autotile/z_index_map = [  ]
2/occluder_offset = Vector2( 0, 0 )
2/navigation_offset = Vector2( 0, 0 )
2/shape_offset = Vector2( 0, 0 )
2/shape_transform = Transform2D( 1, 0, 0, 1, 0, 0 )
2/shape_one_way = false
2/shape_one_way_margin = 0.0
2/shapes = [  ]
2/z_index = 0
3/name = "la overworld tileset.png 3"
3/texture = ExtResource( 2 )
3/tex_offset = Vector2( 0, 0 )
3/modulate = Color( 1, 1, 1, 1 )
3/region = Rect2( 1, 137, 50, 50 )
3/tile_mode = 1
3/autotile/bitmask_mode = 0
3/autotile/bitmask_flags = [ Vector2( 0, 0 ), 256, Vector2( 0, 1 ), 260, Vector2( 0, 2 ), 4, Vector2( 1, 0 ), 320, Vector2( 1, 1 ), 325, Vector2( 1, 2 ), 5, Vector2( 2, 0 ), 64, Vector2( 2, 1 ), 65, Vector2( 2, 2 ), 1 ]
3/autotile/icon_coordinate = Vector2( 0, 0 )
3/autotile/tile_size = Vector2( 16, 16 )
3/autotile/spacing = 1
3/autotile/occluder_map = [  ]
3/autotile/navpoly_map = [  ]
3/autotile/priority_map = [  ]
3/autotile/z_index_map = [  ]
3/occluder_offset = Vector2( 0, 0 )
3/navigation_offset = Vector2( 0, 0 )
3/shape_offset = Vector2( 0, 0 )
3/shape_transform = Transform2D( 1, 0, 0, 1, 0, 0 )
3/shape_one_way = false
3/shape_one_way_margin = 0.0
3/shapes = [  ]
3/z_index = 0
4/name = "la overworld tileset.png 4"
4/texture = ExtResource( 2 )
4/tex_offset = Vector2( 0, 0 )
4/modulate = Color( 1, 1, 1, 1 )
4/region = Rect2( 52, 137, 50, 50 )
4/tile_mode = 1
4/autotile/bitmask_mode = 0
4/autotile/bitmask_flags = [ Vector2( 0, 0 ), 256, Vector2( 0, 1 ), 260, Vector2( 0, 2 ), 4, Vector2( 1, 0 ), 320, Vector2( 1, 1 ), 325, Vector2( 1, 2 ), 5, Vector2( 2, 0 ), 64, Vector2( 2, 1 ), 65, Vector2( 2, 2 ), 1 ]
4/autotile/icon_coordinate = Vector2( 0, 0 )
4/autotile/tile_size = Vector2( 16, 16 )
4/autotile/spacing = 1
4/autotile/occluder_map = [  ]
4/autotile/navpoly_map = [  ]
4/autotile/priority_map = [  ]
4/autotile/z_index_map = [  ]
4/occluder_offset = Vector2( 0, 0 )
4/navigation_offset = Vector2( 0, 0 )
4/shape_offset = Vector2( 0, 0 )
4/shape_transform = Transform2D( 1, 0, 0, 1, 0, 0 )
4/shape_one_way = false
4/shape_one_way_margin = 0.0
4/shapes = [  ]
4/z_index = 0
7/name = "la overworld tileset.png 7"
7/texture = ExtResource( 2 )
7/tex_offset = Vector2( 0, 0 )
7/modulate = Color( 1, 1, 1, 1 )
7/region = Rect2( 222, 171, 16, 16 )
7/tile_mode = 0
7/occluder_offset = Vector2( 0, 0 )
7/navigation_offset = Vector2( 0, 0 )
7/shape_offset = Vector2( 0, 0 )
7/shape_transform = Transform2D( 1, 0, 0, 1, 0, 0 )
7/shape = SubResource( 3 )
7/shape_one_way = false
7/shape_one_way_margin = 1.0
7/shapes = [ {
"autotile_coord": Vector2( 0, 0 ),
"one_way": false,
"one_way_margin": 1.0,
"shape": SubResource( 3 ),
"shape_transform": Transform2D( 1, 0, 0, 1, 0, 0 )
} ]
7/z_index = 0
8/name = "la overworld tileset.png 8"
8/texture = ExtResource( 2 )
8/tex_offset = Vector2( 0, 0 )
8/modulate = Color( 1, 1, 1, 1 )
8/region = Rect2( 392, 120, 16, 16 )
8/tile_mode = 0
8/occluder_offset = Vector2( 0, 0 )
8/navigation_offset = Vector2( 0, 0 )
8/shape_offset = Vector2( 0, 0 )
8/shape_transform = Transform2D( 1, 0, 0, 1, 0, 0 )
8/shape = SubResource( 4 )
8/shape_one_way = false
8/shape_one_way_margin = 1.0
8/shapes = [ {
"autotile_coord": Vector2( 0, 0 ),
"one_way": false,
"one_way_margin": 1.0,
"shape": SubResource( 4 ),
"shape_transform": Transform2D( 1, 0, 0, 1, 0, 0 )
} ]
8/z_index = 0
9/name = "la overworld tileset.png 9"
9/texture = ExtResource( 2 )
9/tex_offset = Vector2( 0, 0 )
9/modulate = Color( 1, 1, 1, 1 )
9/region = Rect2( 375, 137, 16, 16 )
9/tile_mode = 0
9/occluder_offset = Vector2( 0, 0 )
9/navigation_offset = Vector2( 0, 0 )
9/shape_offset = Vector2( 0, 0 )
9/shape_transform = Transform2D( 1, 0, 0, 1, 0, 0 )
9/shape_one_way = false
9/shape_one_way_margin = 0.0
9/shapes = [  ]
9/z_index = 0

[node name="OverworldTestAutotile" type="Node2D"]

[node name="Player" parent="." instance=ExtResource( 1 )]
position = Vector2( 128, 112 )
z_index = 1

[node name="BackgroundTilemap" type="TileMap" parent="."]
z_index = -1
tile_set = SubResource( 1 )
cell_size = Vector2( 16, 16 )
format = 1
tile_data = PoolIntArray( 0, 0, 0, 1, 0, 0, 2, 0, 0, 3, 0, 0, 4, 0, 0, 5, 0, 0, 6, 0, 0, 7, 0, 0, 8, 0, 0, 9, 0, 0, 10, 0, 0, 11, 0, 0, 12, 0, 0, 13, 0, 0, 14, 0, 0, 15, 0, 0, 65536, 0, 0, 65537, 0, 0, 65538, 0, 0, 65539, 0, 0, 65540, 0, 0, 65541, 0, 0, 65542, 0, 0, 65543, 0, 0, 65544, 0, 0, 65545, 0, 0, 65546, 0, 0, 65547, 0, 0, 65548, 0, 0, 65549, 0, 0, 65550, 0, 0, 65551, 0, 0, 131072, 0, 0, 131073, 0, 0, 131074, 0, 0, 131075, 0, 0, 131076, 0, 0, 131077, 0, 0, 131078, 0, 0, 131079, 0, 0, 131080, 0, 0, 131081, 0, 0, 131082, 0, 0, 131083, 0, 0, 131084, 0, 0, 131085, 0, 0, 131086, 0, 0, 131087, 0, 0, 196608, 0, 0, 196609, 0, 0, 196610, 0, 0, 196611, 0, 0, 196612, 0, 0, 196613, 0, 0, 196614, 0, 0, 196615, 0, 0, 196616, 0, 0, 196617, 0, 0, 196618, 0, 0, 196619, 0, 0, 196620, 0, 0, 196621, 0, 0, 196622, 0, 0, 196623, 0, 0, 262144, 0, 0, 262145, 0, 0, 262146, 0, 0, 262147, 0, 0, 262148, 0, 0, 262149, 0, 0, 262150, 0, 0, 262151, 0, 0, 262152, 0, 0, 262153, 0, 0, 262154, 0, 0, 262155, 0, 0, 262156, 0, 0, 262157, 0, 0, 262158, 0, 0, 262159, 0, 0, 327680, 0, 0, 327681, 0, 0, 327682, 0, 0, 327683, 0, 0, 327684, 0, 0, 327685, 0, 0, 327686, 0, 0, 327687, 0, 0, 327688, 0, 0, 327689, 0, 0, 327690, 0, 0, 327691, 0, 0, 327692, 0, 0, 327693, 0, 0, 327694, 0, 0, 327695, 0, 0, 393216, 0, 0, 393217, 0, 0, 393218, 0, 0, 393219, 0, 0, 393220, 0, 0, 393221, 0, 0, 393222, 0, 0, 393223, 0, 0, 393224, 0, 0, 393225, 0, 0, 393226, 0, 0, 393227, 0, 0, 393228, 0, 0, 393229, 0, 0, 393230, 0, 0, 393231, 0, 0, 458752, 2, 0, 458753, 2, 0, 458754, 2, 0, 458755, 0, 0, 458756, 0, 0, 458757, 0, 0, 458758, 0, 0, 458759, 0, 0, 458760, 0, 0, 458761, 0, 0, 458762, 0, 0, 458763, 0, 0, 458764, 0, 0, 458765, 0, 0, 458766, 0, 0, 458767, 0, 0, 524288, 2, 0, 524289, 2, 0, 524290, 2, 0, 524291, 2, 0, 524292, 0, 0, 524293, 0, 0, 524294, 0, 0, 524295, 0, 0, 524296, 0, 0, 524297, 0, 0, 524298, 0, 0, 524299, 0, 0, 524300, 0, 0, 524301, 0, 0, 524302, 0, 0, 524303, 0, 0, 589824, 2, 0, 589825, 2, 0, 589826, 2, 0, 589827, 2, 0, 589828, 2, 0, 589829, 0, 0, 589830, 0, 0, 589831, 0, 0, 589832, 0, 0, 589833, 0, 0, 589834, 1, 0, 589835, 1, 0, 589836, 1, 0, 589837, 1, 0, 589838, 0, 0, 589839, 0, 0, 655360, 2, 0, 655361, 2, 0, 655362, 2, 0, 655363, 2, 0, 655364, 2, 0, 655365, 0, 0, 655366, 0, 0, 655367, 0, 0, 655368, 1, 0, 655369, 1, 0, 655370, 1, 0, 655371, 1, 0, 655372, 1, 0, 655373, 1, 0, 655374, 1, 0, 655375, 0, 0, 720896, 2, 0, 720897, 2, 0, 720898, 2, 0, 720899, 2, 0, 720900, 2, 0, 720901, 2, 0, 720902, 0, 0, 720903, 0, 0, 720904, 1, 0, 720905, 1, 0, 720906, 1, 0, 720907, 1, 0, 720908, 1, 0, 720909, 1, 0, 720910, 1, 0, 720911, 0, 0, 786432, 2, 0, 786433, 2, 0, 786434, 2, 0, 786435, 2, 0, 786436, 2, 0, 786437, 2, 0, 786438, 0, 0, 786439, 0, 0, 786440, 1, 0, 786441, 1, 0, 786442, 1, 0, 786443, 1, 0, 786444, 1, 0, 786445, 1, 0, 786446, 1, 0, 786447, 0, 0, 851968, 2, 0, 851969, 2, 0, 851970, 2, 0, 851971, 2, 0, 851972, 2, 0, 851973, 0, 0, 851974, 0, 0, 851975, 0, 0, 851976, 0, 0, 851977, 1, 0, 851978, 1, 0, 851979, 1, 0, 851980, 1, 0, 851981, 0, 0, 851982, 0, 0, 851983, 0, 0 )

[node name="GrassTileMap" type="TileMap" parent="."]
tile_set = SubResource( 2 )
cell_size = Vector2( 16, 16 )
format = 1
tile_data = PoolIntArray( 0, 7, 0, 1, 7, 0, 2, 7, 0, 13, 7, 0, 14, 7, 0, 15, 7, 0, 65536, 7, 0, 65537, 7, 0, 65538, 7, 0, 65543, 3, 0, 65544, 3, 1, 65545, 3, 1, 65546, 3, 1, 65547, 3, 2, 65549, 7, 0, 65550, 7, 0, 65551, 7, 0, 131072, 7, 0, 131073, 7, 0, 131074, 7, 0, 131079, 3, 65536, 131080, 3, 65537, 131081, 3, 65537, 131082, 3, 65537, 131083, 3, 65538, 131085, 4, 0, 131086, 4, 1, 131087, 4, 2, 196608, 7, 0, 196609, 7, 0, 196610, 7, 0, 196611, 0, 0, 196612, 0, 1, 196613, 0, 2, 196615, 3, 65536, 196616, 3, 65537, 196617, 3, 65537, 196618, 3, 65537, 196619, 3, 65538, 196621, 4, 65536, 196622, 4, 65537, 196623, 4, 65538, 262144, 7, 0, 262145, 7, 0, 262146, 7, 0, 262147, 0, 65536, 262148, 0, 65537, 262149, 0, 65538, 262151, 3, 131072, 262152, 3, 131073, 262153, 3, 131073, 262154, 3, 131073, 262155, 3, 131074, 262157, 4, 131072, 262158, 4, 131073, 262159, 4, 131074, 327683, 0, 131072, 327684, 0, 131073, 327685, 0, 131074, 393225, 0, 0, 393226, 0, 1, 393227, 0, 1, 393228, 0, 1, 393229, 0, 2, 393230, 7, 0, 393231, 7, 0, 458752, 8, 0, 458753, 8, 0, 458754, 8, 0, 458761, 0, 131072, 458762, 0, 131073, 458763, 0, 131073, 458764, 0, 131073, 458765, 0, 131074, 458766, 7, 0, 458767, 7, 0, 524288, 8, 0, 524289, 8, 0, 524290, 8, 0, 524291, 8, 0, 524302, 7, 0, 524303, 7, 0, 589838, 7, 0, 589839, 7, 0, 655361, 2, 0, 655362, 2, 1, 655363, 2, 1, 655364, 2, 2, 655369, 1, 0, 655370, 1, 1, 655371, 1, 1, 655372, 1, 1, 655373, 1, 2, 655374, 7, 0, 655375, 7, 0, 720897, 2, 65536, 720898, 2, 65537, 720899, 2, 65537, 720900, 2, 65538, 720901, 9, 0, 720905, 1, 131072, 720906, 1, 131073, 720907, 1, 131073, 720908, 1, 65537, 720909, 1, 65538, 720910, 7, 0, 720911, 7, 0, 786433, 2, 65536, 786434, 2, 65537, 786435, 2, 65537, 786436, 2, 65538, 786437, 9, 0, 786444, 1, 65536, 786445, 1, 65538, 786446, 7, 0, 786447, 7, 0, 851969, 2, 131072, 851970, 2, 131073, 851971, 2, 131073, 851972, 2, 131074, 851980, 1, 131072, 851981, 1, 131074, 851982, 7, 0, 851983, 7, 0 )
